hardware/test.vcd
$date
	Fri Apr  5 00:29:24 2024
$end

$version
	Synopsys VCS version U-2023.03-SP1-1_Full64
$end

$timescale
	1ps
$end

$comment Csum: 1 848a669ed1d5dba0 $end


$scope module shifter $end
$var reg 11 ! in [10:0] $end
$var reg 1 " en $end
$var reg 11 # out [10:0] $end
$upscope $end


$scope module stripes_16_tb $end
$var reg 1 $ clk $end
$var reg 1 % reset $end
$var reg 1 & en_acc $end
$var reg 1 ' load_accum $end
$var reg 3 ( column_idx_in [2:0] $end
$var reg 1 ) is_msb_in $end
$var reg 24 * accum_prev [23:0] $end
$var reg 16 + result [15:0] $end

$scope module dut $end
$var reg 1 , clk $end
$var reg 1 - reset $end
$var reg 1 . en_acc $end
$var reg 1 / load_accum $end
$var reg 3 0 column_idx_in [2:0] $end
$var reg 1 1 is_msb_in $end
$var reg 24 2 accum_prev [23:0] $end
$var reg 16 3 result [15:0] $end
$var reg 3 4 column_idx [2:0] $end
$var reg 1 5 is_msb $end

$scope module mac $end
$var reg 1 6 clk $end
$var reg 1 7 reset $end
$var reg 1 8 en_acc $end
$var reg 1 9 load_accum $end
$var reg 3 : column_idx [2:0] $end
$var reg 1 ; is_msb $end
$var reg 24 < accum_prev [23:0] $end
$var reg 16 = result [15:0] $end
$var reg 12 > psum_total [11:0] $end
$var reg 12 ? psum_act_shift_in [11:0] $end
$var reg 19 @ psum_act_shift_out [18:0] $end
$var reg 19 A psum_act_shift_reg [18:0] $end
$var reg 24 B accum_in [23:0] $end
$var reg 24 C accum_out [23:0] $end

$scope module twos_complement $end
$var reg 12 D in [11:0] $end
$var reg 1 E sign $end
$var reg 12 F out [11:0] $end
$upscope $end


$scope module shift_psum $end
$var reg 12 G in [11:0] $end
$var reg 3 H shift_sel [2:0] $end
$var reg 19 I out [18:0] $end
$upscope $end


$scope module genblk1[0].bs_mul $end
$var reg 8 J in [7:0] $end
$var reg 1 K en $end
$var reg 8 L out [7:0] $end
$upscope $end


$scope module genblk1[1].bs_mul $end
$var reg 8 M in [7:0] $end
$var reg 1 N en $end
$var reg 8 O out [7:0] $end
$upscope $end


$scope module genblk1[2].bs_mul $end
$var reg 8 P in [7:0] $end
$var reg 1 Q en $end
$var reg 8 R out [7:0] $end
$upscope $end


$scope module genblk1[3].bs_mul $end
$var reg 8 S in [7:0] $end
$var reg 1 T en $end
$var reg 8 U out [7:0] $end
$upscope $end


$scope module genblk1[4].bs_mul $end
$var reg 8 V in [7:0] $end
$var reg 1 W en $end
$var reg 8 X out [7:0] $end
$upscope $end


$scope module genblk1[5].bs_mul $end
$var reg 8 Y in [7:0] $end
$var reg 1 Z en $end
$var reg 8 [ out [7:0] $end
$upscope $end


$scope module genblk1[6].bs_mul $end
$var reg 8 \ in [7:0] $end
$var reg 1 ] en $end
$var reg 8 ^ out [7:0] $end
$upscope $end


$scope module genblk1[7].bs_mul $end
$var reg 8 _ in [7:0] $end
$var reg 1 ` en $end
$var reg 8 a out [7:0] $end
$upscope $end


$scope module genblk1[8].bs_mul $end
$var reg 8 b in [7:0] $end
$var reg 1 c en $end
$var reg 8 d out [7:0] $end
$upscope $end


$scope module genblk1[9].bs_mul $end
$var reg 8 e in [7:0] $end
$var reg 1 f en $end
$var reg 8 g out [7:0] $end
$upscope $end


$scope module genblk1[10].bs_mul $end
$var reg 8 h in [7:0] $end
$var reg 1 i en $end
$var reg 8 j out [7:0] $end
$upscope $end


$scope module genblk1[11].bs_mul $end
$var reg 8 k in [7:0] $end
$var reg 1 l en $end
$var reg 8 m out [7:0] $end
$upscope $end


$scope module genblk1[12].bs_mul $end
$var reg 8 n in [7:0] $end
$var reg 1 o en $end
$var reg 8 p out [7:0] $end
$upscope $end


$scope module genblk1[13].bs_mul $end
$var reg 8 q in [7:0] $end
$var reg 1 r en $end
$var reg 8 s out [7:0] $end
$upscope $end


$scope module genblk1[14].bs_mul $end
$var reg 8 t in [7:0] $end
$var reg 1 u en $end
$var reg 8 v out [7:0] $end
$upscope $end


$scope module genblk1[15].bs_mul $end
$var reg 8 w in [7:0] $end
$var reg 1 x en $end
$var reg 8 y out [7:0] $end
$upscope $end

$upscope $end

$upscope $end

$upscope $end

$enddefinitions $end

#0
$dumpvars
bxxxxxxxxxxx !
bxxxxxxxxxxx #
0$
0&
x)
x'
1%
bxxxxxxxxxxxxxxxxxxxxxxxx *
bxxx (
bxxxxxxxxxxxxxxxx +
x5
bxxxxxxxxxxxxxxxxxxxxxxxx 2
bxxx 4
bxxx 0
bxxxxxxxxxxxxxxxx 3
xE
bxxxxxxxxxxxxxxxxxxxxxxxx B
bxxxxxxxxxxxxxxxxxxxxxxxx C
bxxxxxxxxxxxxxxxxxxxxxxxx <
bxxx :
b000000000000 D
b000000000000 F
b000000000000 ?
bxxxxxxxxxxxxxxxxxxx @
bxxxxxxxxxxxxxxxxxxx A
b000000000000 >
bxxxxxxxxxxxxxxxx =
b000000000000 G
bxxxxxxxxxxxxxxxxxxx I
bxxx H
bxxxxxxxx J
b00000000 L
bxxxxxxxx M
b00000000 O
bxxxxxxxx P
b00000000 R
bxxxxxxxx S
b00000000 U
bxxxxxxxx V
b00000000 X
bxxxxxxxx Y
b00000000 [
bxxxxxxxx \
b00000000 ^
bxxxxxxxx _
b00000000 a
bxxxxxxxx b
b00000000 d
bxxxxxxxx e
b00000000 g
bxxxxxxxx h
b00000000 j
bxxxxxxxx k
b00000000 m
bxxxxxxxx n
b00000000 p
bxxxxxxxx q
b00000000 s
bxxxxxxxx t
b00000000 v
bxxxxxxxx w
b00000000 y
0,
06
1-
17
0.
08
x/
x9
x"
x1
x;
xK
xN
xQ
xT
xW
xZ
x]
x`
xc
xf
xi
xl
xo
xr
xu
xx
$end
#625
1$
1,
16
b000 4
b000 :
b000 H
05
0;
0E
b0000000000000000000 A
b000000000000000000000000 C
b0000000000000000 =
b0000000000000000 3
b0000000000000000 +
0x
0u
0r
0o
0l
0i
0f
0c
0`
0]
0Z
0W
0T
0Q
0N
0K
b00000000 w
b00000000 t
b00000000 q
b00000000 n
b00000000 k
b00000000 h
b00000000 e
b00000000 b
b00000000 _
b00000000 \
b00000000 Y
b00000000 V
b00000000 S
b00000000 P
b00000000 M
b00000000 J
b0000000000000000000 I
b0000000000000000000 @
b000000000000000000000000 B
#1250
0$
0,
06
#1875
1$
1,
16
#2000
0%
0-
07
1&
1.
18
1'
1/
19
b000000000000000000000000 *
b000000000000000000000000 2
b000000000000000000000000 <
#2500
0$
0,
06
#3125
1$
1,
16
bxxx 4
bxxx :
bxxx H
x5
x;
xE
xx
xu
xr
xo
xl
xi
xf
xc
x`
x]
xZ
xW
xT
xQ
xN
xK
bxxxxxxxx w
bxxxxxxxx t
bxxxxxxxx q
bxxxxxxxx n
bxxxxxxxx k
bxxxxxxxx h
bxxxxxxxx e
bxxxxxxxx b
bxxxxxxxx _
bxxxxxxxx \
bxxxxxxxx Y
bxxxxxxxx V
bxxxxxxxx S
bxxxxxxxx P
bxxxxxxxx M
bxxxxxxxx J
bxxxxxxxxxxxxxxxxxxx I
bxxxxxxxxxxxxxxxxxxx @
#3250
1)
11
b111 (
b111 0
#3750
0$
0,
06
#4375
1$
1,
16
b111 4
b111 :
b111 H
15
1;
1E
bxxxxxxxxxxxxxxxxxxx A
0x
0u
1r
0o
0l
0i
1f
0c
1`
1]
1Z
1W
0T
0Q
1N
1K
b01001001 w
b11010010 t
b11111101 q
b01001101 n
b10101100 k
b00101011 h
b10001000 e
b10110111 b
b01101101 _
b00001101 \
b00010011 Y
b11101101 V
b01010010 S
b01110001 P
b01000110 M
b11001010 J
b0000000000000000000 I
b0000000000000000000 @
b11111101 s
b10001000 g
b01101101 a
b00001101 ^
b00010011 [
b11101101 X
b01000110 O
b11001010 L
b000000001111 >
b000000001111 D
b111111110001 F
b111111110001 ?
b111111110001 G
b1111111100010000000 I
b1111111100010000000 @
#4500
0)
01
b110 (
b110 0
#5000
0$
0,
06
#5625
1$
1,
16
b110 4
b110 :
b110 H
05
0;
0E
b1111111100010000000 A
bxxxxxxxxxxxxxxxxxxxxxxxx C
bxxxxxxxxxxxxxxxx =
bxxxxxxxxxxxxxxxx 3
bxxxxxxxxxxxxxxxx +
1x
1o
1l
1i
0f
1c
0Z
1T
0K
b1111111110001000000 I
b1111111110001000000 @
b000000001111 F
b000000001111 ?
b000000001111 G
b01001001 y
b01001101 p
b10101100 m
b00101011 j
b00000000 g
b10110111 d
b00000000 [
b01010010 U
b00000000 L
b0000000001111000000 I
b0000000001111000000 @
b000100100000 >
b000100100000 D
b000100100000 F
b000100100000 ?
b000100100000 G
b0000100100000000000 I
b0000100100000000000 @
#5750
b101 (
b101 0
#6250
0$
0,
06
#6875
1$
1,
16
b101 4
b101 :
b101 H
b0000100100000000000 A
b111111111111100010000000 C
b1111111111111000 =
b1111111111111000 3
b1111111111111000 +
0r
0l
0i
0c
0]
1Q
0N
1K
b0000010010000000000 I
b0000010010000000000 @
b00000000 s
b00000000 m
b00000000 j
b00000000 d
b00000000 ^
b01110001 R
b00000000 O
b11001010 L
b000101111101 >
b000101111101 D
b000101111101 F
b000101111101 ?
b000101111101 G
b0000010111110100000 I
b0000010111110100000 @
#7000
b100 (
b100 0
#7500
0$
0,
06
#8125
1$
1,
16
b100 4
b100 :
b100 H
b0000010111110100000 A
b000000000100100000000000 C
b0000000001001000 =
b0000000001001000 3
b0000000001001000 +
0x
1u
1l
1i
1f
1c
1]
1Z
0Q
0K
b0000001011111010000 I
b0000001011111010000 @
b00000000 y
b11010010 v
b10101100 m
b00101011 j
b10001000 g
b10110111 d
b00001101 ^
b00010011 [
b00000000 R
b00000000 L
b000000000001 >
b000000000001 D
b000000000001 F
b000000000001 ?
b000000000001 G
b0000000000000010000 I
b0000000000000010000 @
#8250
b011 (
b011 0
#8750
0$
0,
06
#9375
1$
1,
16
b011 4
b011 :
b011 H
b0000000000000010000 A
b000000000010111110100000 C
b0000000000101111 =
b0000000000101111 3
b0000000000101111 +
1r
0i
0f
0c
0]
0Z
0W
0T
1N
1K
b0000000000000001000 I
b0000000000000001000 @
b11111101 s
b00000000 j
b00000000 g
b00000000 d
b00000000 ^
b00000000 [
b00000000 X
b00000000 U
b01000110 O
b11001010 L
b000001000101 >
b000001000101 D
b000001000101 F
b000001000101 ?
b000001000101 G
b0000000001000101000 I
b0000000001000101000 @
#9500
b010 (
b010 0
#10000
0$
0,
06
#10625
1$
1,
16
b010 4
b010 :
b010 H
b0000000001000101000 A
b000000000000000000010000 C
b0000000000000000 =
b0000000000000000 3
b0000000000000000 +
0u
0r
0l
1i
1f
1c
0`
1]
1T
0K
b0000000000100010100 I
b0000000000100010100 @
b00000000 v
b00000000 s
b00000000 m
b00101011 j
b10001000 g
b10110111 d
b00000000 a
b00001101 ^
b01010010 U
b00000000 L
b000001011100 >
b000001011100 D
b000001011100 F
b000001011100 ?
b000001011100 G
b0000000000101110000 I
b0000000000101110000 @
#10750
b001 (
b001 0
#11250
0$
0,
06
#11875
1$
1,
16
b001 4
b001 :
b001 H
b0000000000101110000 A
b000000000000001000101000 C
b0000000000000010 =
b0000000000000010 3
b0000000000000010 +
1x
1r
1l
0i
0f
0c
1`
0]
1Q
0N
1K
b0000000000010111000 I
b0000000000010111000 @
b01001001 y
b11111101 s
b10101100 m
b00000000 j
b00000000 g
b00000000 d
b01101101 a
b00000000 ^
b01110001 R
b00000000 O
b11001010 L
b000100111001 >
b000100111001 D
b000100111001 F
b000100111001 ?
b000100111001 G
b0000000001001110010 I
b0000000001001110010 @
#12000
b000 (
b000 0
#12500
0$
0,
06
#13125
1$
1,
16
b000 4
b000 :
b000 H
b0000000001001110010 A
b000000000000000101110000 C
b0000000000000001 =
b0000000000000001 3
b0000000000000001 +
0r
1i
1f
1]
1Z
0T
0Q
1N
0K
b0000000000100111001 I
b0000000000100111001 @
b00000000 s
b00101011 j
b10001000 g
b00001101 ^
b00010011 [
b00000000 U
b00000000 R
b01000110 O
b00000000 L
b000011001000 >
b000011001000 D
b000011001000 F
b000011001000 ?
b000011001000 G
b0000000000011001000 I
b0000000000011001000 @
#13250
1)
11
b111 (
b111 0
#13750
0$
0,
06
#14375
1$
1,
16
b111 4
b111 :
b111 H
15
1;
1E
b0000000000011001000 A
b000000000000001001110010 C
b0000000000000010 =
b0000000000000010 3
b0000000000000010 +
1r
0o
0l
0`
1T
1K
b10010000 w
b00000000 t
b00010000 q
b00100101 n
b00001000 k
b01101010 h
b10001011 e
b00111000 b
b11001101 _
b01000011 \
b11000001 Y
b11010001 V
b10110111 S
b11100000 P
b10011001 M
b01101001 J
b0000110010000000000 I
b0000110010000000000 @
b111100111000 F
b111100111000 ?
b111100111000 G
b00010000 s
b00000000 p
b00000000 m
b00000000 a
b10110111 U
b01101001 L
b10010000 y
b01101010 j
b10001011 g
b01000011 ^
b11000001 [
b10011001 O
b1111001110000000000 I
b1111001110000000000 @
b111101010010 >
b111101010010 D
b000010101110 F
b000010101110 ?
b000010101110 G
b0000101011100000000 I
b0000101011100000000 @
#14500
0)
01
b110 (
b110 0
#15000
0$
0,
06
#15625
1$
1,
16
b110 4
b110 :
b110 H
05
0;
0E
b0000101011100000000 A
b000000000000000011001000 C
b0000000000000000 =
b0000000000000000 3
b0000000000000000 +
0x
1u
1l
0i
1c
1`
0Z
0T
1Q
0K
b0000010101110000000 I
b0000010101110000000 @
b111101010010 F
b111101010010 ?
b111101010010 G
b00000000 y
b00001000 m
b00000000 j
b00111000 d
b11001101 a
b00000000 [
b00000000 U
b11100000 R
b00000000 L
b1111101010010000000 I
b1111101010010000000 @
b111101100100 >
b111101100100 D
b111101100100 F
b111101100100 ?
b111101100100 G
b1111101100100000000 I
b1111101100100000000 @
#15750
b101 (
b101 0
#16250
0$
0,
06
#16875
1$
1,
16
b101 4
b101 :
b101 H
b1111101100100000000 A
b000000000101011100000000 C
b0000000001010111 =
b0000000001010111 3
b0000000001010111 +
1x
0u
1o
0l
0c
0`
0]
1Z
1W
1T
0Q
b1111110110010000000 I
b1111110110010000000 @
b10010000 y
b00100101 p
b00000000 m
b00000000 d
b00000000 a
b00000000 ^
b11000001 [
b11010001 X
b10110111 U
b00000000 R
b111000110010 >
b111000110010 D
b111000110010 F
b111000110010 ?
b111000110010 G
b1111100011001000000 I
b1111100011001000000 @
#17000
b100 (
b100 0
#17500
0$
0,
06
#18125
1$
1,
16
b100 4
b100 :
b100 H
b1111100011001000000 A
b111111111101100100000000 C
b1111111111011001 =
b1111111111011001 3
b1111111111011001 +
1u
0r
1c
1`
1]
0T
1K
b1111110001100100000 I
b1111110001100100000 @
b00000000 s
b00111000 d
b11001101 a
b01000011 ^
b00000000 U
b01101001 L
b111100011100 >
b111100011100 D
b111100011100 F
b111100011100 ?
b111100011100 G
b1111111000111000000 I
b1111111000111000000 @
#18250
b011 (
b011 0
#18750
0$
0,
06
#19375
1$
1,
16
b011 4
b011 :
b011 H
b1111111000111000000 A
b111111111100011001000000 C
b1111111111000110 =
b1111111111000110 3
b1111111111000110 +
0x
0o
1i
0f
0c
0`
0Z
0W
1T
1Q
0N
0K
b1111111100011100000 I
b1111111100011100000 @
b00000000 y
b00000000 p
b01101010 j
b00000000 g
b00000000 d
b00000000 a
b00000000 [
b00000000 X
b10110111 U
b11100000 R
b00000000 O
b00000000 L
b000001000100 >
b000001000100 D
b000001000100 F
b000001000100 ?
b000001000100 G
b0000000001000100000 I
b0000000001000100000 @
#19500
b010 (
b010 0
#20000
0$
0,
06
#20625
1$
1,
16
b010 4
b010 :
b010 H
b0000000001000100000 A
b111111111111000111000000 C
b1111111111110001 =
b1111111111110001 3
b1111111111110001 +
1x
0u
1r
0i
1f
1c
1W
1N
b0000000000100010000 I
b0000000000100010000 @
b10010000 y
b00010000 s
b00000000 j
b10001011 g
b00111000 d
b11010001 X
b10011001 O
b111010100111 >
b111010100111 D
b111010100111 F
b111010100111 ?
b111010100111 G
b1111111101010011100 I
b1111111101010011100 @
#20750
b001 (
b001 0
#21250
0$
0,
06
#21875
1$
1,
16
b001 4
b001 :
b001 H
b1111111101010011100 A
b000000000000001000100000 C
b0000000000000010 =
b0000000000000010 3
b0000000000000010 +
0x
1u
0r
1o
1i
0c
1Z
0Q
0N
1K
b1111111110101001110 I
b1111111110101001110 @
b00000000 y
b00000000 s
b00100101 p
b01101010 j
b00000000 d
b11000001 [
b00000000 R
b00000000 O
b01101001 L
b000000001111 >
b000000001111 D
b000000001111 F
b000000001111 ?
b000000001111 G
b0000000000000011110 I
b0000000000000011110 @
#22000
b000 (
b000 0
#22500
0$
0,
06
#23125
1$
1,
16
b000 4
b000 :
b000 H
b0000000000000011110 A
b111111111111101010011100 C
b1111111111111010 =
b1111111111111010 3
b1111111111111010 +
1l
0f
1`
0]
1N
0K
b0000000000000001111 I
b0000000000000001111 @
b00001000 m
b00000000 g
b11001101 a
b00000000 ^
b10011001 O
b00000000 L
b111101000110 >
b111101000110 D
b111101000110 F
b111101000110 ?
b111101000110 G
b1111111111101000110 I
b1111111111101000110 @
#23250
1)
11
b111 (
b111 0
#23750
0$
0,
06
#24375
1$
1,
16
b111 4
b111 :
b111 H
15
1;
1E
b1111111111101000110 A
b000000000000000000011110 C
b0000000000000000 =
b0000000000000000 3
b0000000000000000 +
0o
1]
0N
1K
b00111110 w
b10100101 t
b00101001 q
b10010111 n
b11001000 k
b00001100 h
b10001110 e
b00010010 b
b10110110 _
b10001100 \
b10000001 Y
b11011111 V
b01101010 S
b11111011 P
b11111111 M
b00110111 J
b1111010001100000000 I
b1111010001100000000 @
b000010111010 F
b000010111010 ?
b000010111010 G
b00000000 p
b10001100 ^
b00000000 O
b00110111 L
b10100101 v
b11001000 m
b00001100 j
b10110110 a
b10000001 [
b11011111 X
b01101010 U
b0000101110100000000 I
b0000101110100000000 @
b111010111100 >
b111010111100 D
b000101000100 F
b000101000100 ?
b000101000100 G
b0001010001000000000 I
b0001010001000000000 @
#24500
0)
01
b110 (
b110 0
#25000
0$
0,
06
#25625
1$
1,
16
b110 4
b110 :
b110 H
05
0;
0E
b0001010001000000000 A
b111111111111111101000110 C
b1111111111111111 =
b1111111111111111 3
b1111111111111111 +
1x
0u
1r
1o
0`
0]
0Z
1Q
0K
b0000101000100000000 I
b0000101000100000000 @
b111010111100 F
b111010111100 ?
b111010111100 G
b00111110 y
b00000000 v
b00101001 s
b10010111 p
b00000000 a
b00000000 ^
b00000000 [
b11111011 R
b00000000 L
b1111010111100000000 I
b1111010111100000000 @
b000000010110 >
b000000010110 D
b000000010110 F
b000000010110 ?
b000000010110 G
b0000000010110000000 I
b0000000010110000000 @
#25750
b101 (
b101 0
#26250
0$
0,
06
#26875
1$
1,
16
b101 4
b101 :
b101 H
b0000000010110000000 A
b000000001010001000000000 C
b0000000010100010 =
b0000000010100010 3
b0000000010100010 +
1u
0r
0o
0l
1]
0W
0T
1N
b0000000001011000000 I
b0000000001011000000 @
b10100101 v
b00000000 s
b00000000 p
b00000000 m
b10001100 ^
b00000000 X
b00000000 U
b11111111 O
b111101110101 >
b111101110101 D
b111101110101 F
b111101110101 ?
b111101110101 G
b1111110111010100000 I
b1111110111010100000 @
#27000
b100 (
b100 0
#27500
0$
0,
06
#28125
1$
1,
16
b100 4
b100 :
b100 H
b1111110111010100000 A
b000000000000010110000000 C
b0000000000000101 =
b0000000000000101 3
b0000000000000101 +
0u
1o
1l
0i
1c
1`
1Z
1T
0Q
0N
b1111111011101010000 I
b1111111011101010000 @
b00000000 v
b10010111 p
b11001000 m
b00000000 j
b00010010 d
b10110110 a
b10000001 [
b01101010 U
b00000000 R
b00000000 O
b111011011100 >
b111011011100 D
b111011011100 F
b111011011100 ?
b111011011100 G
b1111110110111000000 I
b1111110110111000000 @
#28250
b011 (
b011 0
#28750
0$
0,
06
#29375
1$
1,
16
b011 4
b011 :
b011 H
b1111110110111000000 A
b111111111110111010100000 C
b1111111111101110 =
b1111111111101110 3
b1111111111101110 +
1u
1f
0c
0`
1W
0T
1N
1K
b1111111011011100000 I
b1111111011011100000 @
b10100101 v
b10001110 g
b00000000 d
b00000000 a
b11011111 X
b00000000 U
b11111111 O
b00110111 L
b110111110010 >
b110111110010 D
b110111110010 F
b110111110010 ?
b110111110010 G
b1111110111110010000 I
b1111110111110010000 @
#29500
b010 (
b010 0
#30000
0$
0,
06
#30625
1$
1,
16
b010 4
b010 :
b010 H
b1111110111110010000 A
b111111111110110111000000 C
b1111111111101101 =
b1111111111101101 3
b1111111111101101 +
0x
0u
0l
1i
0f
0]
0Z
0W
0N
0K
b1111111011111001000 I
b1111111011111001000 @
b00000000 y
b00000000 v
b00000000 m
b00001100 j
b00000000 g
b00000000 ^
b00000000 [
b00000000 X
b00000000 O
b00000000 L
b111110100011 >
b111110100011 D
b111110100011 F
b111110100011 ?
b111110100011 G
b1111111111010001100 I
b1111111111010001100 @
#30750
b001 (
b001 0
#31250
0$
0,
06
#31875
1$
1,
16
b001 4
b001 :
b001 H
b1111111111010001100 A
b111111111110111110010000 C
b1111111111101111 =
b1111111111101111 3
b1111111111101111 +
1x
1u
0o
1l
1f
1c
1`
1]
1Q
1N
1K
b1111111111101000110 I
b1111111111101000110 @
b00111110 y
b10100101 v
b00000000 p
b11001000 m
b10001110 g
b00010010 d
b10110110 a
b10001100 ^
b11111011 R
b11111111 O
b00110111 L
b111011001010 >
b111011001010 D
b111011001010 F
b111011001010 ?
b111011001010 G
b1111111110110010100 I
b1111111110110010100 @
#32000
b000 (
b000 0
#32500
0$
0,
06
#33125
1$
1,
16
b000 4
b000 :
b000 H
b1111111110110010100 A
b111111111111111010001100 C
b1111111111111110 =
b1111111111111110 3
b1111111111111110 +
1r
0i
0]
1W
0Q
0N
b1111111111011001010 I
b1111111111011001010 @
b00101001 s
b00000000 j
b00000000 ^
b11011111 X
b00000000 R
b00000000 O
b111101000000 >
b111101000000 D
b111101000000 F
b111101000000 ?
b111101000000 G
b1111111111101000000 I
b1111111111101000000 @
#33250
1)
11
b111 (
b111 0
#33750
0$
0,
06
#34375
1$
1,
16
b111 4
b111 :
b111 H
15
1;
1E
b1111111111101000000 A
b111111111111110110010100 C
b1111111111111101 =
b1111111111111101 3
b1111111111111101 +
0u
0r
1i
0f
0c
0`
1Z
1Q
b01001110 w
b00100111 t
b10000100 q
b10101100 n
b10111100 k
b11101100 h
b11001011 e
b01001111 b
b11111100 _
b11101010 \
b00111000 Y
b11111011 V
b01000000 S
b01111101 P
b11011010 M
b10011001 J
b1111010000000000000 I
b1111010000000000000 @
b000011000000 F
b000011000000 ?
b000011000000 G
b00000000 v
b00000000 s
b11101100 j
b00000000 g
b00000000 d
b00000000 a
b00111000 [
b01111101 R
b01001110 y
b10111100 m
b11111011 X
b10011001 L
b0000110000000000000 I
b0000110000000000000 @
b000000111111 >
b000000111111 D
b111111000001 F
b111111000001 ?
b111111000001 G
b1111110000010000000 I
b1111110000010000000 @
#34500
0)
01
b110 (
b110 0
#35000
0$
0,
06
#35625
1$
1,
16
b110 4
b110 :
b110 H
05
0;
0E
b1111110000010000000 A
b111111111111111101000000 C
b1111111111111111 =
b1111111111111111 3
b1111111111111111 +
0x
1u
1o
0l
0i
1c
0Z
0W
b1111111000001000000 I
b1111111000001000000 @
b000000111111 F
b000000111111 ?
b000000111111 G
b00000000 y
b00100111 v
b10101100 p
b00000000 m
b00000000 j
b01001111 d
b00000000 [
b00000000 X
b0000000111111000000 I
b0000000111111000000 @
b000000111000 >
b000000111000 D
b000000111000 F
b000000111000 ?
b000000111000 G
b0000000111000000000 I
b0000000111000000000 @
#35750
b101 (
b101 0
#36250
0$
0,
06
#36875
1$
1,
16
b101 4
b101 :
b101 H
b0000000111000000000 A
b111111111110000010000000 C
b1111111111100000 =
b1111111111100000 3
b1111111111100000 +
0u
0o
1i
0c
0Q
b0000000011100000000 I
b0000000011100000000 @
b00000000 v
b00000000 p
b11101100 j
b00000000 d
b00000000 R
b111110000101 >
b111110000101 D
b111110000101 F
b111110000101 ?
b111110000101 G
b1111111000010100000 I
b1111111000010100000 @
#37000
b100 (
b100 0
#37500
0$
0,
06
#38125
1$
1,
16
b100 4
b100 :
b100 H
b1111111000010100000 A
b000000000000111000000000 C
b0000000000001110 =
b0000000000001110 3
b0000000000001110 +
1u
1l
0i
1`
1]
0K
b1111111100001010000 I
b1111111100001010000 @
b00100111 v
b10111100 m
b00000000 j
b11111100 a
b11101010 ^
b00000000 L
b111111001001 >
b111111001001 D
b111111001001 F
b111111001001 ?
b111111001001 G
b1111111110010010000 I
b1111111110010010000 @
#38250
b011 (
b011 0
#38750
0$
0,
06
#39375
1$
1,
16
b011 4
b011 :
b011 H
b1111111110010010000 A
b111111111111000010100000 C
b1111111111110000 =
b1111111111110000 3
b1111111111110000 +
1r
1i
1f
0`
1Z
1W
b1111111111001001000 I
b1111111111001001000 @
b10000100 s
b11101100 j
b11001011 g
b00000000 a
b00111000 [
b11111011 X
b111100111011 >
b111100111011 D
b111100111011 F
b111100111011 ?
b111100111011 G
b1111111100111011000 I
b1111111100111011000 @
#39500
b010 (
b010 0
#40000
0$
0,
06
#40625
1$
1,
16
b010 4
b010 :
b010 H
b1111111100111011000 A
b111111111111110010010000 C
b1111111111111100 =
b1111111111111100 3
b1111111111111100 +
0u
0r
0l
0i
0f
1c
1`
0Z
0W
1Q
1N
b1111111110011101100 I
b1111111110011101100 @
b00000000 v
b00000000 s
b00000000 m
b00000000 j
b00000000 g
b01001111 d
b11111100 a
b00000000 [
b00000000 X
b01111101 R
b11011010 O
b000010001100 >
b000010001100 D
b000010001100 F
b000010001100 ?
b000010001100 G
b0000000001000110000 I
b0000000001000110000 @
#40750
b001 (
b001 0
#41250
0$
0,
06
#41875
1$
1,
16
b001 4
b001 :
b001 H
b0000000001000110000 A
b111111111111100111011000 C
b1111111111111001 =
b1111111111111001 3
b1111111111111001 +
1x
1r
1o
1f
0c
1W
0Q
0N
b0000000000100011000 I
b0000000000100011000 @
b01001110 y
b10000100 s
b10101100 p
b11001011 g
b00000000 d
b11111011 X
b00000000 R
b00000000 O
b111100101010 >
b111100101010 D
b111100101010 F
b111100101010 ?
b111100101010 G
b1111111111001010100 I
b1111111111001010100 @
#42000
b000 (
b000 0
#42500
0$
0,
06
#43125
1$
1,
16
b000 4
b000 :
b000 H
b1111111111001010100 A
b000000000000001000110000 C
b0000000000000010 =
b0000000000000010 3
b0000000000000010 +
0x
1u
1l
0f
0`
1T
1Q
b1111111111100101010 I
b1111111111100101010 @
b00000000 y
b00100111 v
b10111100 m
b00000000 g
b00000000 a
b01000000 U
b01111101 R
b111110110101 >
b111110110101 D
b111110110101 F
b111110110101 ?
b111110110101 G
b1111111111110110101 I
b1111111111110110101 @
#43250
1)
11
b111 (
b111 0
#43750
0$
0,
06
#44375
1$
1,
16
b111 4
b111 :
b111 H
15
1;
1E
b1111111111110110101 A
b111111111111111001010100 C
b1111111111111110 =
b1111111111111110 3
b1111111111111110 +
0r
1i
1f
1`
1Z
0T
0Q
1N
1K
b00010110 w
b11010001 t
b01100100 q
b11011101 n
b11001111 k
b01000100 h
b10100101 e
b01010101 b
b01101101 _
b10101011 \
b10100011 Y
b10010000 V
b01011001 S
b11010000 P
b00110101 M
b11001011 J
b1111101101010000000 I
b1111101101010000000 @
b000001001011 F
b000001001011 ?
b000001001011 G
b00000000 s
b01000100 j
b10100101 g
b01101101 a
b10100011 [
b00000000 U
b00000000 R
b00110101 O
b11001011 L
b11010001 v
b11011101 p
b11001111 m
b10101011 ^
b10010000 X
b0000010010110000000 I
b0000010010110000000 @
b111010110001 >
b111010110001 D
b000101001111 F
b000101001111 ?
b000101001111 G
b0001010011110000000 I
b0001010011110000000 @
#44500
0)
01
b110 (
b110 0
#45000
0$
0,
06
#45625
1$
1,
16
b110 4
b110 :
b110 H
05
0;
0E
b0001010011110000000 A
b111111111111111110110101 C
b1111111111111111 =
b1111111111111111 3
b1111111111111111 +
0u
1c
0`
0]
0Z
0W
1T
b0000101001111000000 I
b0000101001111000000 @
b111010110001 F
b111010110001 ?
b111010110001 G
b00000000 v
b01010101 d
b00000000 a
b00000000 ^
b00000000 [
b00000000 X
b01011001 U
b1111010110001000000 I
b1111010110001000000 @
b000001000011 >
b000001000011 D
b000001000011 F
b000001000011 ?
b000001000011 G
b0000001000011000000 I
b0000001000011000000 @
#45750
b101 (
b101 0
#46250
0$
0,
06
#46875
1$
1,
16
b101 4
b101 :
b101 H
b0000001000011000000 A
b000000001010011110000000 C
b0000000010100111 =
b0000000010100111 3
b0000000010100111 +
1x
0o
0l
0c
1`
1]
1Z
1W
0T
0N
0K
b0000000100001100000 I
b0000000100001100000 @
b00010110 y
b00000000 p
b00000000 m
b00000000 d
b01101101 a
b10101011 ^
b10100011 [
b10010000 X
b00000000 U
b00000000 O
b00000000 L
b111101001010 >
b111101001010 D
b111101001010 F
b111101001010 ?
b111101001010 G
b1111110100101000000 I
b1111110100101000000 @
#47000
b100 (
b100 0
#47500
0$
0,
06
#48125
1$
1,
16
b100 4
b100 :
b100 H
b1111110100101000000 A
b000000000001000011000000 C
b0000000000010000 =
b0000000000010000 3
b0000000000010000 +
0i
1c
0`
0]
1T
1N
1K
b1111111010010100000 I
b1111111010010100000 @
b00000000 j
b01010101 d
b00000000 a
b00000000 ^
b01011001 U
b00110101 O
b11001011 L
b111110011100 >
b111110011100 D
b111110011100 F
b111110011100 ?
b111110011100 G
b1111111100111000000 I
b1111111100111000000 @
#48250
b011 (
b011 0
#48750
0$
0,
06
