hardware/test.vcd
$date
	Thu Apr  4 17:09:55 2024
$end

$version
	Synopsys VCS version U-2023.03-SP1-1_Full64
$end

$timescale
	1ps
$end

$comment Csum: 1 041b5f7e37e8ea2e $end


$scope module vert_32_tb $end
$var reg 1 ! clk $end
$var reg 1 " reset $end
$var reg 1 # en_acc $end
$var reg 1 $ load_accum $end
$var reg 3 % column_idx [2:0] $end
$var reg 1 & is_msb $end
$var reg 24 ' accum_prev [23:0] $end
$var reg 16 ( result [15:0] $end

$scope module s $end
$var reg 1 ) clk $end
$var reg 1 * reset $end
$var reg 1 + en_acc $end
$var reg 1 , load_accum $end
$var reg 3 - column_idx [2:0] $end
$var reg 1 . is_msb $end
$var reg 24 / accum_prev [23:0] $end
$var reg 16 0 result [15:0] $end

$scope module mac $end
$var reg 1 1 clk $end
$var reg 1 2 reset $end
$var reg 1 3 en_acc $end
$var reg 1 4 load_accum $end
$var reg 3 5 column_idx [2:0] $end
$var reg 1 6 is_msb $end
$var reg 24 7 accum_prev [23:0] $end
$var reg 16 8 result [15:0] $end
$var reg 13 9 psum_act_total [12:0] $end
$var reg 13 : psum_act_shift_in [12:0] $end
$var reg 20 ; psum_act_shift_out [19:0] $end
$var reg 24 < accum_in [23:0] $end
$var reg 24 = accum_out [23:0] $end
$var reg 20 > psum_act_shift_reg [19:0] $end

$scope module twos_complement $end
$var reg 13 ? in [12:0] $end
$var reg 1 @ sign $end
$var reg 13 A out [12:0] $end
$upscope $end


$scope module shift_psum $end
$var reg 13 B in [12:0] $end
$var reg 3 C shift_sel [2:0] $end
$var reg 20 D out [19:0] $end
$upscope $end


$scope module genblk1[0].genblk1[0].mux_act $end
$var reg 3 E sel [2:0] $end
$var reg 1 F val $end
$var reg 8 G out [7:0] $end
$var reg 8 H out_tmp [7:0] $end
$upscope $end


$scope module genblk1[0].genblk1[1].mux_act $end
$var reg 3 I sel [2:0] $end
$var reg 1 J val $end
$var reg 8 K out [7:0] $end
$var reg 8 L out_tmp [7:0] $end
$upscope $end


$scope module genblk1[0].genblk1[2].mux_act $end
$var reg 3 M sel [2:0] $end
$var reg 1 N val $end
$var reg 8 O out [7:0] $end
$var reg 8 P out_tmp [7:0] $end
$upscope $end


$scope module genblk1[0].genblk1[3].mux_act $end
$var reg 3 Q sel [2:0] $end
$var reg 1 R val $end
$var reg 8 S out [7:0] $end
$var reg 8 T out_tmp [7:0] $end
$upscope $end


$scope module genblk1[1].genblk1[0].mux_act $end
$var reg 3 U sel [2:0] $end
$var reg 1 V val $end
$var reg 8 W out [7:0] $end
$var reg 8 X out_tmp [7:0] $end
$upscope $end


$scope module genblk1[1].genblk1[1].mux_act $end
$var reg 3 Y sel [2:0] $end
$var reg 1 Z val $end
$var reg 8 [ out [7:0] $end
$var reg 8 \ out_tmp [7:0] $end
$upscope $end


$scope module genblk1[1].genblk1[2].mux_act $end
$var reg 3 ] sel [2:0] $end
$var reg 1 ^ val $end
$var reg 8 _ out [7:0] $end
$var reg 8 ` out_tmp [7:0] $end
$upscope $end


$scope module genblk1[1].genblk1[3].mux_act $end
$var reg 3 a sel [2:0] $end
$var reg 1 b val $end
$var reg 8 c out [7:0] $end
$var reg 8 d out_tmp [7:0] $end
$upscope $end


$scope module genblk1[2].genblk1[0].mux_act $end
$var reg 3 e sel [2:0] $end
$var reg 1 f val $end
$var reg 8 g out [7:0] $end
$var reg 8 h out_tmp [7:0] $end
$upscope $end


$scope module genblk1[2].genblk1[1].mux_act $end
$var reg 3 i sel [2:0] $end
$var reg 1 j val $end
$var reg 8 k out [7:0] $end
$var reg 8 l out_tmp [7:0] $end
$upscope $end


$scope module genblk1[2].genblk1[2].mux_act $end
$var reg 3 m sel [2:0] $end
$var reg 1 n val $end
$var reg 8 o out [7:0] $end
$var reg 8 p out_tmp [7:0] $end
$upscope $end


$scope module genblk1[2].genblk1[3].mux_act $end
$var reg 3 q sel [2:0] $end
$var reg 1 r val $end
$var reg 8 s out [7:0] $end
$var reg 8 t out_tmp [7:0] $end
$upscope $end


$scope module genblk1[3].genblk1[0].mux_act $end
$var reg 3 u sel [2:0] $end
$var reg 1 v val $end
$var reg 8 w out [7:0] $end
$var reg 8 x out_tmp [7:0] $end
$upscope $end


$scope module genblk1[3].genblk1[1].mux_act $end
$var reg 3 y sel [2:0] $end
$var reg 1 z val $end
$var reg 8 { out [7:0] $end
$var reg 8 | out_tmp [7:0] $end
$upscope $end


$scope module genblk1[3].genblk1[2].mux_act $end
$var reg 3 } sel [2:0] $end
$var reg 1 ~ val $end
$var reg 8 "! out [7:0] $end
$var reg 8 "" out_tmp [7:0] $end
$upscope $end


$scope module genblk1[3].genblk1[3].mux_act $end
$var reg 3 "# sel [2:0] $end
$var reg 1 "$ val $end
$var reg 8 "% out [7:0] $end
$var reg 8 "& out_tmp [7:0] $end
$upscope $end

$upscope $end

$upscope $end

$upscope $end


$scope module shifter_constant $end
$var reg 12 "' in [11:0] $end
$var reg 1 "( is_shift $end
$var reg 15 ") out [14:0] $end
$var reg 15 "* out_tmp [14:0] $end
$upscope $end

$enddefinitions $end

#0
$dumpvars
0!
0#
x&
x$
1"
bxxxxxxxxxxxxxxxxxxxxxxxx '
bxxx %
bxxxxxxxxxxxxxxxx (
bxxxxxxxxxxxxxxxxxxxxxxxx /
bxxx -
bxxxxxxxxxxxxxxxx 0
x@
bxxxxxxxxxxxxxxxxxxxxxxxx <
bxxxxxxxxxxxxxxxxxxxxxxxx =
bxxxxxxxxxxxxxxxxxxxxxxxx 7
bxxx 5
bxxxxxxxxxxxxx ?
bxxxxxxxxxxxxx A
bxxxxxxxxxxxxx :
bxxxxxxxxxxxxxxxxxxxx ;
bxxxxxxxxxxxxxxxxxxxx >
bxxxxxxxxxxxxx 9
bxxxxxxxxxxxxxxxx 8
bxxxxxxxxxxxxx B
bxxxxxxxxxxxxxxxxxxxx D
bxxx C
b00000000 G
bxxxxxxxx H
bxxx E
b00000000 K
bxxxxxxxx L
bxxx I
b00000000 O
bxxxxxxxx P
bxxx M
b00000000 S
bxxxxxxxx T
bxxx Q
b00000000 W
bxxxxxxxx X
bxxx U
b00000000 [
bxxxxxxxx \
bxxx Y
b00000000 _
bxxxxxxxx `
bxxx ]
b00000000 c
bxxxxxxxx d
bxxx a
b00000000 g
bxxxxxxxx h
bxxx e
b00000000 k
bxxxxxxxx l
bxxx i
b00000000 o
bxxxxxxxx p
bxxx m
b00000000 s
bxxxxxxxx t
bxxx q
b00000000 w
bxxxxxxxx x
bxxx u
b00000000 {
bxxxxxxxx |
bxxx y
b00000000 "!
bxxxxxxxx ""
bxxx }
b00000000 "%
bxxxxxxxx "&
bxxx "#
bxxxxxxxxxxxx "'
bxxxxxxxxxxxxxxx ")
bxxxxxxxxxxxxxxx "*
0)
01
1*
12
0+
03
x,
x4
x.
x6
xF
xJ
xN
xR
xV
xZ
x^
xb
xf
xj
xn
xr
xv
xz
x~
x"$
x"(
$end
#1000
1!
1)
11
b00000000000000000000 >
b000000000000000000000000 =
b0000000000000000 8
b0000000000000000 0
b0000000000000000 (
0"$
0~
0z
0v
0r
0n
0j
0f
0b
0^
0Z
0V
0R
0N
0J
0F
b000 "#
b000 }
b000 y
b000 u
b000 q
b000 m
b000 i
b000 e
b000 a
b000 ]
b000 Y
b000 U
b000 Q
b000 M
b000 I
b000 E
b000000000000000000000000 <
#1200
0"
0*
02
1#
1+
13
0$
0,
04
b000000000000000000000000 '
b000000000000000000000000 /
b000000000000000000000000 7
#2000
0!
0)
01
#2200
1&
1.
16
1@
b111 %
b111 -
b111 5
b111 C
bxxxxxxxxxxxxx0000000 D
bxxxxxxxxxxxxx0000000 ;
b11000011 x
b00000001 |
b01001100 ""
b10000001 "&
b10101101 h
b01111010 l
b00011001 p
b01011101 t
b00100110 X
b11010100 \
b10100110 `
b10110011 d
b11001110 H
b10110001 L
b00000110 P
b11111110 T
#3000
1!
1)
11
bxxxxxxxxxxxxx0000000 >
1~
1z
1v
1r
1n
1b
1Z
1V
1N
1J
b001 "#
b010 }
b001 y
b001 u
b010 q
b011 m
b100 i
b001 e
b011 a
b011 ]
b100 U
b011 Q
b010 M
b011 I
b011 E
b01001100 "!
b00000001 {
b11000011 w
b01011101 s
b00011001 o
b10110011 c
b11010100 [
b00100110 W
b00000110 O
b10110001 K
b11001111 "&
b11001111 ""
b01001100 |
b00000001 x
b10110001 t
b10110001 p
b10110001 l
b01111010 h
b01010011 d
b00001010 `
b00000100 X
b11110111 T
b01100100 P
b01100100 L
b11111110 H
b11001111 "!
b01001100 {
b00000001 w
b10110001 s
b10110001 o
b01010011 c
b00000100 W
b01100100 O
b01100100 K
#3200
0&
0.
06
0@
b110 %
b110 -
b110 5
b110 C
bxxxxxxxxxxxxxx000000 D
bxxxxxxxxxxxxxx000000 ;
#4000
0!
0)
01
#4200
b101 %
b101 -
b101 5
b101 C
bxxxxxxxxxxxxxxx00000 D
bxxxxxxxxxxxxxxx00000 ;
bxxxxxxxxxxxxx 9
#5000
1!
1)
11
bxxxxxxxxxxxxxxx00000 >
bxxxxxxxxxxxxxxxxxxxxxxxx =
bxxxxxxxxxxxxxxxx 8
bxxxxxxxxxxxxxxxx 0
bxxxxxxxxxxxxxxxx (
1"$
0~
0r
0n
1j
1^
0Z
0V
b010 "#
b100 }
b010 y
b100 m
b000 i
b100 e
b010 a
b100 ]
b011 Y
b011 U
b000 Q
b100 E
bxxxxxxxxxxxxxxxxxxxxxxxx <
b11001111 "%
b00000000 "!
b00000000 s
b00000000 o
b10110001 k
b00001010 _
b00000000 [
b00000000 W
b01100110 "&
b11101110 ""
b10000001 |
b00011110 p
b01111010 l
b01100001 h
b00001010 d
b01010011 `
b00000100 \
b10110011 X
b11111110 T
b01100100 H
b01100110 "%
b10000001 {
b01111010 k
b00001010 c
b01010011 _
#5200
b100 %
b100 -
b100 5
b100 C
bxxxxxxxxxxxxxxxx0000 D
bxxxxxxxxxxxxxxxx0000 ;
#6000
0!
0)
01
#6200
b011 %
b011 -
b011 5
b011 C
bxxxxxxxxxxxxxxxxx000 D
bxxxxxxxxxxxxxxxxx000 ;
#7000
1!
1)
11
bxxxxxxxxxxxxxxxxx000 >
0"$
0v
1r
1Z
1V
1F
b011 "#
b001 }
b001 y
b100 u
b001 q
b011 m
b011 i
b000 e
b010 ]
b100 Y
b100 U
b001 I
b000 E
b00000000 "%
b00000000 w
b10110001 s
b00000100 [
b10110011 W
b01100100 G
b11101110 "&
b10000001 ""
b01001100 |
b11001111 x
b01100001 t
b10110001 p
b01100001 l
b10101101 h
b00000100 `
b00001010 \
b00000100 X
b00000110 L
b11001110 H
b01001100 {
b01100001 s
b01100001 k
b00000100 _
b00001010 [
b00000100 W
b00000110 K
b11001110 G
#7200
b010 %
b010 -
b010 5
b010 C
bxxxxxxxxxxxxxxxxxx00 D
bxxxxxxxxxxxxxxxxxx00 ;
#8000
0!
0)
01
#8200
b001 %
b001 -
b001 5
b001 C
bxxxxxxxxxxxxxxxxxxx0 D
bxxxxxxxxxxxxxxxxxxx0 ;
bxxxxxxxxxxxxx 9
#9000
1!
1)
11
bxxxxxxxxxxxxxxxxxxx0 >
1"$
0j
1f
0^
0Z
b000 "#
b000 }
b100 y
b010 u
b000 q
b100 m
b010 i
b001 e
b000 Y
b010 U
b001 Q
b001 M
b011 I
b011 E
b11101110 "%
b00000000 k
b10101101 g
b00000000 _
b00000000 [
b10000001 "&
b01001100 ""
b01100110 |
b01001100 x
b01011101 t
b00011110 p
b01011101 l
b01111010 h
b11010100 \
b10100110 X
b01100100 T
b11111110 P
b01100100 L
b11111110 H
b10000001 "%
b01100110 {
b01011101 s
b01111010 g
b10100110 W
b11111110 O
b01100100 K
b11111110 G
#9200
b000 %
b000 -
b000 5
b000 C
bxxxxxxxxxxxxxxxxxxxx D
bxxxxxxxxxxxxxxxxxxxx ;
#10000
0!
0)
01
#10200
1&
1.
16
1@
b111 %
b111 -
b111 5
b111 C
bxxxxxxxxxxxxx0000000 D
bxxxxxxxxxxxxx0000000 ;
b11101001 x
b11000100 |
b11101001 ""
b00110110 "&
b11101100 h
b11101111 l
b10001011 p
b11101111 t
b00011100 X
b00001111 \
b10100101 `
b01111101 d
b10100011 H
b10000010 L
b10100011 P
b10000010 T
b11000100 {
b00110110 "%
b11101100 g
b11101111 s
b00011100 W
b01111101 c
b10100011 G
b10000010 K
b10100011 O
#11000
1!
1)
11
bxxxxxxxxxxxxx0000000 >
1j
0b
0V
1R
0J
0F
b100 "#
b001 y
b001 u
b001 q
b010 m
b000 i
b011 e
b001 a
b001 ]
b100 Y
b100 U
b010 Q
b100 M
b001 E
b11101111 k
b00000000 c
b00000000 W
b10000010 S
b00000000 K
b00000000 G
b00111101 "&
b11101001 |
b01111101 x
b10011110 t
b10011110 p
b11101100 l
b11101111 h
b10100101 d
b01011010 `
b01111101 \
b10100101 X
b10111000 T
b00111000 P
b00110001 H
b00111101 "%
b11101001 {
b10011110 s
b11101100 k
b11101111 g
b10111000 S
b00111000 O
#11200
0&
0.
06
0@
b110 %
b110 -
b110 5
b110 C
bxxxxxxxxxxxxxx000000 D
bxxxxxxxxxxxxxx000000 ;
#12000
0!
0)
01
#12200
b101 %
b101 -
b101 5
b101 C
bxxxxxxxxxxxxxxx00000 D
bxxxxxxxxxxxxxxx00000 ;
#13000
1!
1)
11
bxxxxxxxxxxxxxxx00000 >
1~
0f
1^
1Z
1J
1F
b000 "#
b001 }
b010 y
b100 u
b100 i
b000 e
b010 Y
b000 U
b010 I
b011 E
b11101001 "!
b00000000 g
b01011010 _
b01111101 [
b10000010 K
b00110001 G
b00110110 "&
b00110110 ""
b00110110 |
b11000110 x
b10001101 l
b00000110 h
b01011010 \
b00001010 X
b10100011 L
b10100011 H
b00110110 "%
b00110110 "!
b00110110 {
b10001101 k
b01011010 [
b10100011 K
b10100011 G
#13200
b100 %
b100 -
b100 5
b100 C
bxxxxxxxxxxxxxxxx0000 D
bxxxxxxxxxxxxxxxx0000 ;
#14000
0!
0)
01
#14200
b011 %
b011 -
b011 5
b011 C
bxxxxxxxxxxxxxxxxx000 D
bxxxxxxxxxxxxxxxxx000 ;
#15000
1!
1)
11
bxxxxxxxxxxxxxxxxx000 >
0~
0z
0j
1f
1b
0Z
0F
b100 "#
b011 }
b001 u
b100 q
b001 m
b000 i
b000 a
b010 ]
b011 U
b000 M
b000 I
b00000000 "!
b00000000 {
b00000000 k
b00000110 g
b10100101 c
b00000000 [
b00000000 G
b00111101 "&
b11000100 ""
b01111101 x
b00000000 t
b11101111 p
b11101100 l
b01011010 d
b10100101 `
b01011010 X
b10101100 P
b00110001 L
b00111101 "%
b00000000 s
b01011010 c
b10100101 _
b10101100 O
b00110001 K
#15200
b010 %
b010 -
b010 5
b010 C
bxxxxxxxxxxxxxxxxxx00 D
bxxxxxxxxxxxxxxxxxx00 ;
#16000
0!
0)
01
#16200
b001 %
b001 -
b001 5
b001 C
bxxxxxxxxxxxxxxxxxxx0 D
bxxxxxxxxxxxxxxxxxxx0 ;
#17000
1!
1)
11
bxxxxxxxxxxxxxxxxxxx0 >
1n
0f
0^
1V
0J
b010 "#
b010 }
b100 y
b100 u
b010 q
b001 i
b011 e
b001 a
b000 Y
b010 U
b100 M
b010 E
b11101111 o
b00000000 g
b00000000 _
b01011010 W
b00000000 K
b11000100 "&
b11000110 ""
b11000100 |
b11000110 x
b10001101 t
b11100110 l
b11101111 h
b10100101 d
b00001111 \
b00011100 X
b00111000 P
b10101100 H
b11000100 "%
b10001101 s
b10100101 c
b00011100 W
b00111000 O
#17200
b000 %
b000 -
b000 5
b000 C
bxxxxxxxxxxxxxxxxxxxx D
bxxxxxxxxxxxxxxxxxxxx ;
#18000
0!
0)
01
#18200
1&
1.
16
1@
b111 %
b111 -
b111 5
b111 C
bxxxxxxxxxxxxx0000000 D
bxxxxxxxxxxxxx0000000 ;
b11101101 x
b10110011 |
b11101101 ""
b10110011 "&
b00110111 h
b10011110 l
b00110111 p
b11110100 t
b10111100 X
b01010111 \
b00110000 `
b00110000 d
b01011110 H
b01010000 L
b10000111 P
b00110111 T
bxxxxxxxxxxxxx 9
b10110011 "%
b00110111 o
b11110100 s
b10111100 W
b00110000 c
b10000111 O
b00110111 S
#19000
1!
1)
11
bxxxxxxxxxxxxx0000000 >
1z
0r
0b
0V
0N
1J
b011 "#
b010 y
b010 u
b000 q
b000 m
b000 e
b011 a
b010 Y
b001 U
b011 Q
b001 I
b011 E
b10110011 {
b00000000 s
b00000000 c
b00000000 W
b00000000 O
b01010000 K
b11001111 "&
b01101111 |
b00011111 x
b00110111 t
b10011110 p
b11001111 h
b10001011 d
b00010010 \
b01010111 X
b10000111 T
b01011110 L
b11111111 H
b11001111 "%
b01101111 {
b10011110 o
b10000111 S
b01011110 K
#19200
0&
0.
06
0@
b110 %
b110 -
b110 5
b110 C
bxxxxxxxxxxxxxx000000 D
bxxxxxxxxxxxxxx000000 ;
#20000
0!
0)
01
#20200
b101 %
b101 -
b101 5
b101 C
bxxxxxxxxxxxxxxx00000 D
bxxxxxxxxxxxxxxx00000 ;
#21000
1!
1)
11
bxxxxxxxxxxxxxxx00000 >
0"$
1~
0n
1j
1f
1V
0J
1F
b010 "#
b100 }
b001 y
b000 u
b010 q
b100 m
b100 i
b100 e
b010 a
b100 ]
b011 U
b001 M
b000 I
b00000000 "%
b11101101 "!
b00000000 o
b10011110 k
b11001111 g
b01010111 W
b00000000 K
b11111111 G
b10110011 "&
b11001111 ""
b00011111 |
b10101000 x
b11110100 t
b00100001 p
b11110100 l
b00000111 h
b00111100 d
b10001011 `
b00010010 X
b11111111 P
b01010000 L
b11001111 "!
b00011111 {
b11110100 k
b00000111 g
b00010010 W
#21200
b100 %
b100 -
b100 5
b100 C
bxxxxxxxxxxxxxxxx0000 D
bxxxxxxxxxxxxxxxx0000 ;
#22000
0!
0)
01
#22200
b011 %
b011 -
b011 5
b011 C
bxxxxxxxxxxxxxxxxx000 D
bxxxxxxxxxxxxxxxxx000 ;
#23000
1!
1)
11
bxxxxxxxxxxxxxxxxx000 >
0~
1v
1r
0j
1Z
0V
0R
1J
b011 "#
b000 q
b000 i
b011 e
b010 ]
b011 Y
b100 U
b001 Q
b010 I
b001 E
b00000000 "!
b10101000 w
b11110100 s
b00000000 k
b00010010 [
b00000000 W
b00000000 S
b01010000 K
b11001111 "&
b00110111 t
b01001001 l
b00110111 h
b00110000 `
b00110000 \
b00110000 X
b01000001 T
b11111111 L
b01010000 H
b00110111 s
b00110111 g
b00110000 [
b11111111 K
b01010000 G
#23200
b010 %
b010 -
b010 5
b010 C
bxxxxxxxxxxxxxxxxxx00 D
bxxxxxxxxxxxxxxxxxx00 ;
#24000
0!
0)
01
#24200
b001 %
b001 -
b001 5
b001 C
bxxxxxxxxxxxxxxxxxxx0 D
bxxxxxxxxxxxxxxxxxxx0 ;
#25000
1!
1)
11
bxxxxxxxxxxxxxxxxxxx0 >
0v
1n
1^
0Z
1V
1R
1N
0F
b010 "#
b011 y
b010 u
b010 q
b011 m
b010 e
b011 a
b000 ]
b010 U
b000 M
b000 I
b011 E
b00000000 w
b00100001 o
b00110000 _
b00000000 [
b00110000 W
b01000001 S
b11111111 O
b00000000 G
b10110011 "&
b11101101 |
b00011111 x
b11110100 t
b11110100 p
b10011110 h
b10001011 d
b10111100 `
b10111100 X
b01011110 P
b01010000 L
b11111111 H
b11101101 {
b11110100 s
b11110100 o
b10011110 g
b10111100 _
b10111100 W
b01011110 O
b01010000 K
#25200
b000 %
b000 -
b000 5
b000 C
bxxxxxxxxxxxxxxxxxxxx D
bxxxxxxxxxxxxxxxxxxxx ;
#26000
0!
0)
01
#26200
1&
1.
16
1@
b111 %
b111 -
b111 5
b111 C
bxxxxxxxxxxxxx0000000 D
bxxxxxxxxxxxxx0000000 ;
b10110000 x
b00110111 |
b00000010 ""
b10111001 "&
b00110010 h
b11101001 l
b01001000 p
b01001000 t
b10100110 X
b10111101 \
b10100110 `
b01010110 d
b11110110 H
b00001001 L
b10101010 P
b11010101 T
b00110111 {
b00110010 g
b01001000 o
b01001000 s
b10100110 W
b10100110 _
b00001001 K
b10101010 O
b11010101 S
#27000
1!
1)
11
bxxxxxxxxxxxxx0000000 >
1~
0z
1v
0r
0n
0f
0^
0V
1F
b100 "#
b011 }
b001 y
b001 u
b001 q
b000 m
b001 i
b001 e
b000 a
b001 Y
b100 U
b010 Q
b010 M
b011 I
b100 E
b00000010 "!
b00000000 {
b10110000 w
b00000000 s
b00000000 o
b00000000 g
b00000000 _
b00000000 W
b11110110 G
b01101000 "&
b10111001 ""
b10110000 |
b10100000 x
b01110110 t
b00110010 p
b00110010 l
b11101001 h
b10100010 d
b10100110 \
b10111101 X
b11001001 T
b11010101 P
b11010101 L
b11010101 H
b10111001 "!
b10100000 w
b11001001 S
b11010101 O
b11010101 K
b11010101 G
#27200
0&
0.
06
0@
b110 %
b110 -
b110 5
b110 C
bxxxxxxxxxxxxxx000000 D
bxxxxxxxxxxxxxx000000 ;
#28000
0!
0)
01
#28200
b101 %
b101 -
b101 5
b101 C
bxxxxxxxxxxxxxxx00000 D
bxxxxxxxxxxxxxxx00000 ;
#29000
1!
1)
11
bxxxxxxxxxxxxxxx00000 >
1"$
1z
0v
1r
1n
1j
1^
1Z
1V
0R
0N
0J
b011 "#
b100 }
b011 y
b010 u
b100 q
b100 m
b010 ]
b001 U
b001 Q
b000 M
b000 I
b010 E
b01101000 "%
b10110000 {
b00000000 w
b01110110 s
b00110010 o
b00110010 k
b10100110 _
b10100110 [
b10111101 W
b00000000 S
b00000000 O
b00000000 K
b00000010 "&
b00000010 ""
b00110111 |
b10110000 x
b10110001 t
b10000100 p
b10111101 `
b10110101 X
b11010101 T
b10101010 P
b00001001 L
b10101010 H
b00000010 "%
b00000010 "!
b00110111 {
b10110001 s
b10000100 o
b10111101 _
b10110101 W
b10101010 G
#29200
b100 %
b100 -
b100 5
b100 C
bxxxxxxxxxxxxxxxx0000 D
bxxxxxxxxxxxxxxxx0000 ;
#30000
0!
0)
01
#30200
b011 %
b011 -
b011 5
b011 C
bxxxxxxxxxxxxxxxxx000 D
bxxxxxxxxxxxxxxxxx000 ;
#31000
1!
1)
11
bxxxxxxxxxxxxxxxxx000 >
0z
0r
0j
1b
0V
1R
1J
0F
b001 "#
b010 }
b010 y
b001 u
b010 q
b000 i
b000 e
b011 U
b011 Q
b100 M
b010 I
b011 E
b00000000 {
b00000000 s
b00000000 k
b10100010 c
b00000000 W
b11010101 S
b00001001 K
b00000000 G
b00110111 "&
b00110111 ""
b10000011 |
b10100000 x
b01001000 t
b11101001 l
b11100110 h
b10100010 X
b01000000 T
b01000000 P
b11110110 L
b11110110 H
b00110111 "%
b00110111 "!
b01000000 S
b11110110 K
#31200
b010 %
b010 -
b010 5
b010 C
bxxxxxxxxxxxxxxxxxx00 D
bxxxxxxxxxxxxxxxxxx00 ;
#32000
0!
0)
01
#32200
b001 %
b001 -
b001 5
b001 C
bxxxxxxxxxxxxxxxxxxx0 D
bxxxxxxxxxxxxxxxxxxx0 ;
#33000
1!
1)
11
bxxxxxxxxxxxxxxxxxxx0 >
0~
1z
1v
1r
1j
0Z
0R
b100 "#
b001 }
b001 y
b010 u
b100 q
b011 m
b011 e
b001 a
b011 ]
b100 Q
b000 M
b000 I
b00000000 "!
b10000011 {
b10100000 w
b01001000 s
b11101001 k
b00000000 [
b00000000 S
b01101000 "&
b10000011 ""
b10110000 |
b10110000 x
b10110001 t
b01001000 p
b10001011 h
b10111101 d
b01011001 `
b00010001 T
b10101010 P
b00001001 L
b01101000 "%
b10110000 {
b10110000 w
b10110001 s
b01001000 o
b10111101 c
b01011001 _
b00001001 K
#33200
b000 %
b000 -
b000 5
b000 C
bxxxxxxxxxxxxxxxxxxxx D
bxxxxxxxxxxxxxxxxxxxx ;
#34000
0!
0)
01
#34200
1&
1.
16
1@
b111 %
b111 -
b111 5
b111 C
bxxxxxxxxxxxxx0000000 D
bxxxxxxxxxxxxx0000000 ;
b00011110 x
b00011110 |
b01010000 ""
b10110111 "&
b10100011 h
b01100001 l
b10011110 p
b01101111 t
b10100101 X
b10100111 \
b00100011 `
b01101100 d
b00100011 H
b01011011 L
b01011100 P
b00110000 T
b00011110 w
b00011110 {
b10110111 "%
b01100001 k
b10011110 o
b01101111 s
b00100011 _
b01101100 c
b01011011 K
#35000
1!
1)
11
bxxxxxxxxxxxxx0000000 >
0"$
1~
0j
1f
0^
1Z
1V
1N
0J
1F
b011 "#
b011 }
b010 y
b001 u
b011 q
b001 m
b001 i
b001 e
b000 a
b000 ]
b000 Y
b000 U
b000 Q
b011 M
b010 I
b00000000 "%
b01010000 "!
b00000000 k
b10100011 g
b00000000 _
b10100111 [
b10100101 W
b01011100 O
b00000000 K
b00100011 G
b01010110 "&
b11011001 ""
b01010000 |
b01010001 x
b10100011 p
b01110011 l
b01100001 h
b10100101 d
b10100111 `
b00001101 \
b11000101 X
b00100011 T
b11111001 P
b00100011 L
b11011001 "!
b01010000 {
b01010001 w
b10100011 o
b01100001 g
b10100101 c
b00001101 [
b11000101 W
b11111001 O
#35200
0&
0.
06
0@
b110 %
b110 -
b110 5
b110 C
bxxxxxxxxxxxxxx000000 D
bxxxxxxxxxxxxxx000000 ;
#36000
0!
0)
01
#36200
b101 %
b101 -
b101 5
b101 C
bxxxxxxxxxxxxxxx00000 D
bxxxxxxxxxxxxxxx00000 ;
#37000
1!
1)
11
bxxxxxxxxxxxxxxx00000 >
1"$
0~
0n
0b
1^
0V
1R
0N
1J
0F
b001 "#
b011 y
b000 u
b100 q
b010 m
b010 i
b100 e
b011 a
b010 ]
b010 U
b011 Q
b001 M
b011 I
b010 E
b01010110 "%
b00000000 "!
b00000000 o
b00000000 c
b10100111 _
b00000000 W
b00100011 S
b00000000 O
b00100011 K
b00000000 G
b01001010 "&
b01001010 |
b00001000 x
b10011100 p
b10100011 l
b10011100 h
b01011101 d
b01101100 `
b10100111 X
b11111110 T
b00100011 P
b11100000 L
b01011100 H
b01001010 "%
b01001010 {
b00001000 w
b10011100 g
b01101100 _
b11111110 S
b11100000 K
#37200
b100 %
b100 -
b100 5
b100 C
bxxxxxxxxxxxxxxxx0000 D
bxxxxxxxxxxxxxxxx0000 ;
#38000
0!
0)
01
#38200
b011 %
b011 -
b011 5
b011 C
bxxxxxxxxxxxxxxxxx000 D
bxxxxxxxxxxxxxxxxx000 ;
#39000
1!
1)
11
bxxxxxxxxxxxxxxxxx000 >
0"$
1~
1n
1j
1b
1V
1N
b001 }
b100 y
b100 u
b001 q
b100 m
b100 i
b001 e
b011 ]
b001 U
b100 Q
b011 M
b100 I
b001 E
b00000000 "%
b11011001 "!
b10011100 o
b10100011 k
b01011101 c
b10100111 W
b00100011 O
b01010000 ""
b11011001 |
b01001010 x
b10011100 t
b01101111 p
b10011110 l
b01100001 h
b00100011 `
b00001101 X
b00110000 T
b11111001 P
b11111001 L
b01011011 H
b01010000 "!
b11011001 {
b01001010 w
b10011100 s
b01101111 o
b10011110 k
b01100001 g
b00100011 _
b00001101 W
b00110000 S
b11111001 O
b11111001 K
#39200
b010 %
b010 -
b010 5
b010 C
bxxxxxxxxxxxxxxxxxx00 D
bxxxxxxxxxxxxxxxxxx00 ;
#40000
0!
0)
01
#40200
b001 %
b001 -
b001 5
b001 C
bxxxxxxxxxxxxxxxxxxx0 D
bxxxxxxxxxxxxxxxxxxx0 ;
#41000
1!
1)
11
bxxxxxxxxxxxxxxxxxxx0 >
0~
0z
0v
0j
0f
0^
0Z
0V
0R
1F
b000 "#
b010 y
b000 u
b011 q
b001 m
b011 i
b010 e
b001 a
b010 Y
b000 Q
b100 M
b001 I
b100 E
b00000000 "!
b00000000 {
b00000000 w
b00000000 k
b00000000 g
b00000000 _
b00000000 [
b00000000 W
b00000000 S
b01011011 G
b01010000 "&
b01010000 |
b00001000 x
b01101111 t
b10100011 p
b10011100 l
b01110011 h
b01101100 d
b10100101 \
b00100011 T
b11111110 P
b01011100 L
b11100000 H
b01101111 s
b10100011 o
b01101100 c
b11111110 O
b01011100 K
b11100000 G
#41200
b000 %
b000 -
b000 5
b000 C
bxxxxxxxxxxxxxxxxxxxx D
bxxxxxxxxxxxxxxxxxxxx ;
#42000
0!
0)
01
#42200
1&
1.
16
1@
b111 %
b111 -
b111 5
b111 C
bxxxxxxxxxxxxx0000000 D
bxxxxxxxxxxxxx0000000 ;
b00100000 x
b11001001 |
b11001001 ""
b11001001 "&
b10011011 h
b10000001 l
b10010100 p
b10111100 t
b00111011 X
b01001000 \
b00001110 `
b01111111 d
b01111101 H
b10011101 L
b10010010 P
b00001110 T
b10010100 o
b10111100 s
b01111111 c
b01111101 G
b10011101 K
b10010010 O
#43000
1!
1)
11
bxxxxxxxxxxxxx0000000 >
1"$
0r
0n
0b
1^
1Z
1V
0N
0F
b100 "#
b010 }
b100 y
b001 u
b010 q
b000 m
b011 a
b100 ]
b010 U
b000 I
b000 E
b11001001 "%
b00000000 s
b00000000 o
b00000000 c
b00001110 _
b01001000 [
b00111011 W
b00000000 O
b00000000 G
b00001110 "&
b00100111 ""
b10111011 |
b10110111 x
b00100111 t
b10011011 p
b10010010 d
b10010010 `
b10101011 X
b00101110 L
b11011110 H
b00001110 "%
b10010010 _
b10101011 W
b00101110 K
#43200
0&
0.
06
0@
b110 %
b110 -
b110 5
b110 C
bxxxxxxxxxxxxxx000000 D
bxxxxxxxxxxxxxx000000 ;
#44000
0!
0)
01
#44200
b101 %
b101 -
b101 5
b101 C
bxxxxxxxxxxxxxxx00000 D
bxxxxxxxxxxxxxxx00000 ;
bxxxxxxxxxxxxx 9
